{
  "kanagawa.nvim": { "branch": "master", "commit": "c19b9023842697ec92caf72cd3599f7dd7be4456" },
  "lazy.nvim": { "branch": "main", "commit": "16603c6917435d8446f7357cb61095138a417085" },
  "neorg": { "branch": "main", "commit": "073f04cdc5dc291f069935e36cdcd60927f67d5d" },
  "nvim-treesitter": { "branch": "master", "commit": "3954741f2652fbcef9d6877d0e3a4d91d44b1632" },
  "plenary.nvim": { "branch": "master", "commit": "50012918b2fc8357b87cff2a7f7f0446e47da174" }
}